Introducción a R
…
Rows: 21,483
Columns: 9
$ year    <int> 2000, 2000, 2000, 2000, 2000, 2000, 2000, 2000, 2000, 2000, 20…
$ marital <fct> Never married, Divorced, Widowed, Never married, Divorced, Mar…
$ age     <int> 26, 48, 67, 39, 25, 25, 36, 44, 44, 47, 53, 52, 52, 51, 52, 40…
$ race    <fct> White, White, White, White, White, White, White, White, White,…
$ rincome <fct> $8000 to 9999, $8000 to 9999, Not applicable, Not applicable, …
$ partyid <fct> "Ind,near rep", "Not str republican", "Independent", "Ind,near…
$ relig   <fct> Protestant, Protestant, Protestant, Orthodox-christian, None, …
$ denom   <fct> "Southern baptist", "Baptist-dk which", "No denomination", "No…
$ tvhours <int> 12, NA, 2, 4, 1, NA, 3, NA, 0, 3, 2, NA, 1, NA, 1, 7, NA, 3, 3…

gss_cat |> select(year, race, partyid)

# A tibble: 21,483 × 3
    year race  partyid           
   <int> <fct> <fct>             
 1  2000 White Ind,near rep      
 2  2000 White Not str republican
 3  2000 White Independent       
 4  2000 White Ind,near rep      
 5  2000 White Not str democrat  
 6  2000 White Strong democrat   
 7  2000 White Not str republican
 8  2000 White Ind,near dem      
 9  2000 White Not str democrat  
10  2000 White Strong republican 
# ℹ 21,473 more rows
…
# Cálculo de proporciones por año y grupo racial
gss_party_race <- gss_cat |> 
  filter(!is.na(partyid), !is.na(race)) |> 
  group_by(year, race, partyid) |> 
  summarise(n = n(), .groups = "drop") |> 
  group_by(year, race) |> 
  mutate(prop = n / sum(n)) |> 
  ungroup()

voto_duro <-gss_party_race |> filter(partyid == "Strong democrat")

voto_duro

# A tibble: 24 × 5
    year race  partyid             n   prop
   <int> <fct> <fct>           <int>  <dbl>
 1  2000 Other Strong democrat    19 0.109 
 2  2000 Black Strong democrat   161 0.375 
 3  2000 White Strong democrat   234 0.106 
 4  2002 Other Strong democrat    16 0.0958
 5  2002 Black Strong democrat   142 0.346 
 6  2002 White Strong democrat   250 0.114 
 7  2004 Other Strong democrat    18 0.0896
 8  2004 Black Strong democrat   143 0.379 
 9  2004 White Strong democrat   294 0.132 
10  2006 Other Strong democrat    61 0.103 
# ℹ 14 more rows
…
