Análisis cuantitativo del texto
…
Sobre los bigramas

library(tidytext)
library(tibble)
bigrama <- tibble(text = texto) %>%
  unnest_tokens(bigrama, text, token = "ngrams", n = 2)

bigrama

# A tibble: 30 × 1
   bigrama                  
   <chr>                    
 1 desde 1990               
 2 1990 chile               
 3 chile es                 
 4 es una                   
 5 una democracia           
 6 democracia representativa
 7 representativa y         
 8 y chile                  
 9 chile es                 
10 es libre                 
# ℹ 20 more rows
…
